Shannon 	01680173801
Lars 	0909305917
Brennan 	0971542177
Veda 	01686601560
Oprah 	0925405798
Orli 	01682872612
India 	0908049317
Nehru 	01680567500
Fay 	01685523942
Lance 	0979177522
Travis 	0976951766
Kane 	0963733331
Hyatt 	01688500527
Sara 	01683697662
Jerome 	01688277808
Dacey 	01682978563
McKenzie 	01681050917
Ivy 	0909219486
Alan 	01687897479
Melissa 	01683363720
Chaim 	0955415362
Kirestin 	01687801253
India 	01687384041
Deirdre 	01687989793
Martin 	0967438842
Todd 	0978474746
Ingrid 	01689302567
Addison 	0919591431
Ryder 	0951682191
Darius 	01683694062
Joy 	01685003810
Charles 	0917879532
Zane 	01689026595
Courtney 	01689761022
Britanney 	0919299093
Yen 	01688854207
Tamara 	01683358025
Bruce 	01688337960
Aidan 	01684046145
Vanna 	0990744812
Ryder 	01680285018
Jonas 	01682362550
Ashton 	0967106264
Leslie 	01684911418
Steel 	0929334650
Heather 	0987071723
Kylan 	01687764575
Sonia 	0935737274
Plato 	01684309956
Lesley 	01681164207
Colt 	01684080951
Cooper 	0995845305
Kerry 	01689686341
Preston 	01688278139
Kiayada 	01685036335
Ralph 	01686749333
Ifeoma 	01685916671
Lacey 	01688130579
Lacey 	01688743102
Damian 	01686854519
McKenzie 	0937529684
Giselle 	0964092946
Ezekiel 	01689987604
Farrah 	0940808332
Brandon 	0961668349
Carson 	0957939222
Aiko 	01682592745
Castor 	01687288076
Quinn 	01689965146
Reece 	01684167470
Pearl 	01682334200
Pandora 	0907938619
Sara 	0987322977
Clarke 	01689409770
Wayne 	01684821063
Stephanie 	0979482884
Rigel 	01689498024
Gail 	0993999058
Alice 	0968540425
Shelley 	0958772216
Kenneth 	0926719290
Ifeoma 	01680629206
Alyssa 	0992817864
Wing 	0967577802
Zorita 	01680928378
Fiona 	0946829105
Portia 	01686500446
William 	01688424258
Dylan 	01688189031
Belle 	01681276905
Leah 	01687191177
Minerva 	01685825779
Erasmus 	01688593575
Eve 	01687986722
Lacey 	01681256153
Richard 	01684210098
Nigel 	0999998320
Paula 	01689340651
Michael 	01687092023
Carol 	0900978633

